1,mojo,online,0751583188,abecedar,
2,mojo,online,0751583188,abecedar,
3,mojo,online,0751583188,abecedar,
4,mojo,online,0751583188,abecedar,
5,mojo,online,0751583188,abecedar,
6,mojo,online,0751583188,abecedar,
7,mojo,online,0751583188,abecedar,
8,mojo,online,0751583188,abecedar,
